…
``` r
library(dplyr)
library(fauxnaif)

na_if(1:10, 2, 4:5, c(7, 9))
#>  [1]  1 NA  3 NA NA  6 NA  8 NA 10

na_if(1:10, ~ . >= 8)
#>  [1]  1  2  3  4  5  6  7 NA NA NA

dplyr::starwars %>%
  select(name, hair_color) %>%
  mutate(mutated_hair_color = na_if(hair_color, "unknown", "none"))
#> # A tibble: 87 x 3
#>   name           hair_color mutated_hair_color
#>   <chr>          <chr>      <chr>             
#> 1 Luke Skywalker blond      blond             
#> 2 C-3PO          <NA>       <NA>              
#> 3 R2-D2          <NA>       <NA>              
#> 4 Darth Vader    none       <NA>              
#> 5 Leia Organa    brown      brown             
#> # ... with 82 more rows
```
